%YAML 1.1
%TAG !u! tag:unity3d.com,2011:
--- !u!74 &7400000
AnimationClip:
  m_ObjectHideFlags: 0
  m_CorrespondingSourceObject: {fileID: 0}
  m_PrefabInstance: {fileID: 0}
  m_PrefabAsset: {fileID: 0}
  m_Name: Idle
  serializedVersion: 6
  m_Legacy: 0
  m_Compressed: 0
  m_UseHighQualityCurve: 1
  m_RotationCurves: []
  m_CompressedRotationCurves: []
  m_EulerCurves: []
  m_PositionCurves: []
  m_ScaleCurves: []
  m_FloatCurves: []
  m_PPtrCurves:
  - curve:
    - time: 0
      value: {fileID: -1770801073755272380, guid: e0ce369b8725a284ab697810abf67cf0, type: 3}
    - time: 0.083333336
      value: {fileID: -4414402410768713609, guid: e0ce369b8725a284ab697810abf67cf0, type: 3}
    - time: 0.16666667
      value: {fileID: 3696937778485384117, guid: e0ce369b8725a284ab697810abf67cf0, type: 3}
    - time: 0.25
      value: {fileID: 1366749257017139190, guid: e0ce369b8725a284ab697810abf67cf0, type: 3}
    - time: 0.33333334
      value: {fileID: -4902370254579537377, guid: e0ce369b8725a284ab697810abf67cf0, type: 3}
    - time: 0.41666666
      value: {fileID: -652434361288701937, guid: e0ce369b8725a284ab697810abf67cf0, type: 3}
    - time: 0.5
      value: {fileID: -2893827620534818997, guid: e0ce369b8725a284ab697810abf67cf0, type: 3}
    - time: 0.5833333
      value: {fileID: -5551640449918148478, guid: e0ce369b8725a284ab697810abf67cf0, type: 3}
    - time: 0.6666667
      value: {fileID: -4043444933177438127, guid: e0ce369b8725a284ab697810abf67cf0, type: 3}
    - time: 0.75
      value: {fileID: -3688289044289587265, guid: e0ce369b8725a284ab697810abf67cf0, type: 3}
    - time: 0.8333333
      value: {fileID: 9211413581303368515, guid: e0ce369b8725a284ab697810abf67cf0, type: 3}
    - time: 0.9166667
      value: {fileID: -3850117562965185619, guid: e0ce369b8725a284ab697810abf67cf0, type: 3}
    - time: 1
      value: {fileID: 3015543904208398615, guid: e0ce369b8725a284ab697810abf67cf0, type: 3}
    - time: 1.0833334
      value: {fileID: -1770801073755272380, guid: e0ce369b8725a284ab697810abf67cf0, type: 3}
    - time: 1.1666666
      value: {fileID: -4414402410768713609, guid: e0ce369b8725a284ab697810abf67cf0, type: 3}
    - time: 1.25
      value: {fileID: 3696937778485384117, guid: e0ce369b8725a284ab697810abf67cf0, type: 3}
    - time: 1.3333334
      value: {fileID: 1366749257017139190, guid: e0ce369b8725a284ab697810abf67cf0, type: 3}
    - time: 1.4166666
      value: {fileID: -4902370254579537377, guid: e0ce369b8725a284ab697810abf67cf0, type: 3}
    - time: 1.5
      value: {fileID: -652434361288701937, guid: e0ce369b8725a284ab697810abf67cf0, type: 3}
    - time: 1.5833334
      value: {fileID: -2893827620534818997, guid: e0ce369b8725a284ab697810abf67cf0, type: 3}
    - time: 1.6666666
      value: {fileID: -5551640449918148478, guid: e0ce369b8725a284ab697810abf67cf0, type: 3}
    - time: 1.75
      value: {fileID: -4043444933177438127, guid: e0ce369b8725a284ab697810abf67cf0, type: 3}
    - time: 1.8333334
      value: {fileID: -3688289044289587265, guid: e0ce369b8725a284ab697810abf67cf0, type: 3}
    - time: 1.9166666
      value: {fileID: 9211413581303368515, guid: e0ce369b8725a284ab697810abf67cf0, type: 3}
    - time: 2
      value: {fileID: -3850117562965185619, guid: e0ce369b8725a284ab697810abf67cf0, type: 3}
    - time: 2.0833333
      value: {fileID: 3015543904208398615, guid: e0ce369b8725a284ab697810abf67cf0, type: 3}
    - time: 2.1666667
      value: {fileID: 3577444865568779665, guid: cf8694006812dbb4ab91332e31340a5a, type: 3}
    - time: 2.25
      value: {fileID: -928522664815421459, guid: cf8694006812dbb4ab91332e31340a5a, type: 3}
    - time: 2.3333333
      value: {fileID: 2829230946232376978, guid: cf8694006812dbb4ab91332e31340a5a, type: 3}
    - time: 2.4166667
      value: {fileID: 790541615869191531, guid: cf8694006812dbb4ab91332e31340a5a, type: 3}
    - time: 2.5
      value: {fileID: -6986015410749415691, guid: cf8694006812dbb4ab91332e31340a5a, type: 3}
    - time: 2.5833333
      value: {fileID: 8772620315711442278, guid: cf8694006812dbb4ab91332e31340a5a, type: 3}
    - time: 2.6666667
      value: {fileID: -7070546290542415767, guid: cf8694006812dbb4ab91332e31340a5a, type: 3}
    - time: 2.75
      value: {fileID: 3788821591424815776, guid: cf8694006812dbb4ab91332e31340a5a, type: 3}
    - time: 2.8333333
      value: {fileID: -4512598485030458573, guid: cf8694006812dbb4ab91332e31340a5a, type: 3}
    - time: 2.9166667
      value: {fileID: -5478782091857817686, guid: cf8694006812dbb4ab91332e31340a5a, type: 3}
    - time: 3
      value: {fileID: 2731542015740439490, guid: cf8694006812dbb4ab91332e31340a5a, type: 3}
    - time: 3.0833333
      value: {fileID: -8567178535742928536, guid: cf8694006812dbb4ab91332e31340a5a, type: 3}
    - time: 3.1666667
      value: {fileID: 1670239663610938748, guid: cf8694006812dbb4ab91332e31340a5a, type: 3}
    attribute: m_Sprite
    path: 
    classID: 212
    script: {fileID: 0}
  m_SampleRate: 60
  m_WrapMode: 0
  m_Bounds:
    m_Center: {x: 0, y: 0, z: 0}
    m_Extent: {x: 0, y: 0, z: 0}
  m_ClipBindingConstant:
    genericBindings:
    - serializedVersion: 2
      path: 0
      attribute: 0
      script: {fileID: 0}
      typeID: 212
      customType: 23
      isPPtrCurve: 1
    pptrCurveMapping:
    - {fileID: -1770801073755272380, guid: e0ce369b8725a284ab697810abf67cf0, type: 3}
    - {fileID: -4414402410768713609, guid: e0ce369b8725a284ab697810abf67cf0, type: 3}
    - {fileID: 3696937778485384117, guid: e0ce369b8725a284ab697810abf67cf0, type: 3}
    - {fileID: 1366749257017139190, guid: e0ce369b8725a284ab697810abf67cf0, type: 3}
    - {fileID: -4902370254579537377, guid: e0ce369b8725a284ab697810abf67cf0, type: 3}
    - {fileID: -652434361288701937, guid: e0ce369b8725a284ab697810abf67cf0, type: 3}
    - {fileID: -2893827620534818997, guid: e0ce369b8725a284ab697810abf67cf0, type: 3}
    - {fileID: -5551640449918148478, guid: e0ce369b8725a284ab697810abf67cf0, type: 3}
    - {fileID: -4043444933177438127, guid: e0ce369b8725a284ab697810abf67cf0, type: 3}
    - {fileID: -3688289044289587265, guid: e0ce369b8725a284ab697810abf67cf0, type: 3}
    - {fileID: 9211413581303368515, guid: e0ce369b8725a284ab697810abf67cf0, type: 3}
    - {fileID: -3850117562965185619, guid: e0ce369b8725a284ab697810abf67cf0, type: 3}
    - {fileID: 3015543904208398615, guid: e0ce369b8725a284ab697810abf67cf0, type: 3}
    - {fileID: -1770801073755272380, guid: e0ce369b8725a284ab697810abf67cf0, type: 3}
    - {fileID: -4414402410768713609, guid: e0ce369b8725a284ab697810abf67cf0, type: 3}
    - {fileID: 3696937778485384117, guid: e0ce369b8725a284ab697810abf67cf0, type: 3}
    - {fileID: 1366749257017139190, guid: e0ce369b8725a284ab697810abf67cf0, type: 3}
    - {fileID: -4902370254579537377, guid: e0ce369b8725a284ab697810abf67cf0, type: 3}
    - {fileID: -652434361288701937, guid: e0ce369b8725a284ab697810abf67cf0, type: 3}
    - {fileID: -2893827620534818997, guid: e0ce369b8725a284ab697810abf67cf0, type: 3}
    - {fileID: -5551640449918148478, guid: e0ce369b8725a284ab697810abf67cf0, type: 3}
    - {fileID: -4043444933177438127, guid: e0ce369b8725a284ab697810abf67cf0, type: 3}
    - {fileID: -3688289044289587265, guid: e0ce369b8725a284ab697810abf67cf0, type: 3}
    - {fileID: 9211413581303368515, guid: e0ce369b8725a284ab697810abf67cf0, type: 3}
    - {fileID: -3850117562965185619, guid: e0ce369b8725a284ab697810abf67cf0, type: 3}
    - {fileID: 3015543904208398615, guid: e0ce369b8725a284ab697810abf67cf0, type: 3}
    - {fileID: 3577444865568779665, guid: cf8694006812dbb4ab91332e31340a5a, type: 3}
    - {fileID: -928522664815421459, guid: cf8694006812dbb4ab91332e31340a5a, type: 3}
    - {fileID: 2829230946232376978, guid: cf8694006812dbb4ab91332e31340a5a, type: 3}
    - {fileID: 790541615869191531, guid: cf8694006812dbb4ab91332e31340a5a, type: 3}
    - {fileID: -6986015410749415691, guid: cf8694006812dbb4ab91332e31340a5a, type: 3}
    - {fileID: 8772620315711442278, guid: cf8694006812dbb4ab91332e31340a5a, type: 3}
    - {fileID: -7070546290542415767, guid: cf8694006812dbb4ab91332e31340a5a, type: 3}
    - {fileID: 3788821591424815776, guid: cf8694006812dbb4ab91332e31340a5a, type: 3}
    - {fileID: -4512598485030458573, guid: cf8694006812dbb4ab91332e31340a5a, type: 3}
    - {fileID: -5478782091857817686, guid: cf8694006812dbb4ab91332e31340a5a, type: 3}
    - {fileID: 2731542015740439490, guid: cf8694006812dbb4ab91332e31340a5a, type: 3}
    - {fileID: -8567178535742928536, guid: cf8694006812dbb4ab91332e31340a5a, type: 3}
    - {fileID: 1670239663610938748, guid: cf8694006812dbb4ab91332e31340a5a, type: 3}
  m_AnimationClipSettings:
    serializedVersion: 2
    m_AdditiveReferencePoseClip: {fileID: 0}
    m_AdditiveReferencePoseTime: 0
    m_StartTime: 0
    m_StopTime: 3.1833334
    m_OrientationOffsetY: 0
    m_Level: 0
    m_CycleOffset: 0
    m_HasAdditiveReferencePose: 0
    m_LoopTime: 1
    m_LoopBlend: 0
    m_LoopBlendOrientation: 0
    m_LoopBlendPositionY: 0
    m_LoopBlendPositionXZ: 0
    m_KeepOriginalOrientation: 0
    m_KeepOriginalPositionY: 1
    m_KeepOriginalPositionXZ: 0
    m_HeightFromFeet: 0
    m_Mirror: 0
  m_EditorCurves: []
  m_EulerEditorCurves: []
  m_HasGenericRootTransform: 0
  m_HasMotionFloatCurves: 0
  m_Events: []
