%YAML 1.1
%TAG !u! tag:unity3d.com,2011:
--- !u!1001 &4644288448705029406
PrefabInstance:
  m_ObjectHideFlags: 0
  serializedVersion: 2
  m_Modification:
    m_TransformParent: {fileID: 0}
    m_Modifications:
    - target: {fileID: 874833865618124603, guid: 9fbff5bb04255f7489909b0f0eea9e71, type: 3}
      propertyPath: m_Sprite
      value: 
      objectReference: {fileID: 21300000, guid: 65f73d3c013c91c4481442e01fc22a18, type: 3}
    - target: {fileID: 874833865618124603, guid: 9fbff5bb04255f7489909b0f0eea9e71, type: 3}
      propertyPath: m_SortingLayer
      value: 3
      objectReference: {fileID: 0}
    - target: {fileID: 874833865618124603, guid: 9fbff5bb04255f7489909b0f0eea9e71, type: 3}
      propertyPath: m_SortingLayerID
      value: -2094168577
      objectReference: {fileID: 0}
    - target: {fileID: 5017181274954222854, guid: 9fbff5bb04255f7489909b0f0eea9e71, type: 3}
      propertyPath: m_Name
      value: s1_cabinet_music
      objectReference: {fileID: 0}
    - target: {fileID: 5017181274954222854, guid: 9fbff5bb04255f7489909b0f0eea9e71, type: 3}
      propertyPath: m_IsActive
      value: 1
      objectReference: {fileID: 0}
    - target: {fileID: 5721293157113244781, guid: 9fbff5bb04255f7489909b0f0eea9e71, type: 3}
      propertyPath: m_RootOrder
      value: 0
      objectReference: {fileID: 0}
    - target: {fileID: 5721293157113244781, guid: 9fbff5bb04255f7489909b0f0eea9e71, type: 3}
      propertyPath: m_LocalPosition.x
      value: 0
      objectReference: {fileID: 0}
    - target: {fileID: 5721293157113244781, guid: 9fbff5bb04255f7489909b0f0eea9e71, type: 3}
      propertyPath: m_LocalPosition.y
      value: 0
      objectReference: {fileID: 0}
    - target: {fileID: 5721293157113244781, guid: 9fbff5bb04255f7489909b0f0eea9e71, type: 3}
      propertyPath: m_LocalPosition.z
      value: 0
      objectReference: {fileID: 0}
    - target: {fileID: 5721293157113244781, guid: 9fbff5bb04255f7489909b0f0eea9e71, type: 3}
      propertyPath: m_LocalRotation.w
      value: 1
      objectReference: {fileID: 0}
    - target: {fileID: 5721293157113244781, guid: 9fbff5bb04255f7489909b0f0eea9e71, type: 3}
      propertyPath: m_LocalRotation.x
      value: 0
      objectReference: {fileID: 0}
    - target: {fileID: 5721293157113244781, guid: 9fbff5bb04255f7489909b0f0eea9e71, type: 3}
      propertyPath: m_LocalRotation.y
      value: 0
      objectReference: {fileID: 0}
    - target: {fileID: 5721293157113244781, guid: 9fbff5bb04255f7489909b0f0eea9e71, type: 3}
      propertyPath: m_LocalRotation.z
      value: 0
      objectReference: {fileID: 0}
    - target: {fileID: 5721293157113244781, guid: 9fbff5bb04255f7489909b0f0eea9e71, type: 3}
      propertyPath: m_LocalEulerAnglesHint.x
      value: 0
      objectReference: {fileID: 0}
    - target: {fileID: 5721293157113244781, guid: 9fbff5bb04255f7489909b0f0eea9e71, type: 3}
      propertyPath: m_LocalEulerAnglesHint.y
      value: 0
      objectReference: {fileID: 0}
    - target: {fileID: 5721293157113244781, guid: 9fbff5bb04255f7489909b0f0eea9e71, type: 3}
      propertyPath: m_LocalEulerAnglesHint.z
      value: 0
      objectReference: {fileID: 0}
    m_RemovedComponents: []
  m_SourcePrefab: {fileID: 100100000, guid: 9fbff5bb04255f7489909b0f0eea9e71, type: 3}
