%YAML 1.1
%TAG !u! tag:unity3d.com,2011:
--- !u!114 &11400000
MonoBehaviour:
  m_ObjectHideFlags: 0
  m_CorrespondingSourceObject: {fileID: 0}
  m_PrefabInstance: {fileID: 0}
  m_PrefabAsset: {fileID: 0}
  m_GameObject: {fileID: 0}
  m_Enabled: 1
  m_EditorHideFlags: 0
  m_Script: {fileID: 11500000, guid: f9fc10a8764c8ce4a9ce501a7d2df838, type: 3}
  m_Name: Ame_Gadget1Objective
  m_EditorClassIdentifier: 
  name: Ame_Gadget1
  id: 0
  description: 
  sprite: {fileID: -3782760534586209715, guid: ecd94770583ca52489ec035483503223, type: 3}
  isComplete: 0
