%YAML 1.1
%TAG !u! tag:unity3d.com,2011:
--- !u!114 &11400000
MonoBehaviour:
  m_ObjectHideFlags: 0
  m_CorrespondingSourceObject: {fileID: 0}
  m_PrefabInstance: {fileID: 0}
  m_PrefabAsset: {fileID: 0}
  m_GameObject: {fileID: 0}
  m_Enabled: 1
  m_EditorHideFlags: 0
  m_Script: {fileID: 11500000, guid: f9fc10a8764c8ce4a9ce501a7d2df838, type: 3}
  m_Name: life saverObjective
  m_EditorClassIdentifier: 
  name: Life Saver
  id: 2
  description: 
  sprite: {fileID: 21300000, guid: fd8f181a8a4aa804a859dc71326c97d4, type: 3}
  isComplete: 0
